caption Práctica 1: Tidyverse y gglot
…
Por nivel educativo y año, territorio con mayor ratio:

student_data |> drop_na(student_ratio) |> slice_max(student_ratio, by = c(indicator, year))

# A tibble: 49 × 6
   edulit_ind indicator                 country_code country  year student_ratio
   <chr>      <chr>                     <chr>        <chr>   <dbl>         <dbl>
 1 PTRHC_2    Lower Secondary Education MRT          Maurit…  2013          56.6
 2 PTRHC_2    Lower Secondary Education MRT          Maurit…  2014          51.9
 3 PTRHC_2    Lower Secondary Education MRT          Maurit…  2015          53.2
 4 PTRHC_2    Lower Secondary Education BGD          Bangla…  2016          41.1
 5 PTRHC_1    Primary Education         CAF          Centra…  2012          80.1
 6 PTRHC_1    Primary Education         MWI          Malawi   2013          69.1
 7 PTRHC_1    Primary Education         MWI          Malawi   2014          72.7
 8 PTRHC_1    Primary Education         MWI          Malawi   2015          69.5
 9 PTRHC_3    Upper Secondary Education ERI          Eritrea  2013          36.8
10 PTRHC_02   Pre-Primary Education     TZA          United…  2012         113. 
# ℹ 39 more rows

Por nivel educativo y año, territorio con menor ratio:

student_data |> drop_na(student_ratio) |> slice_min(student_ratio, by = c(indicator, year))

# A tibble: 49 × 6
   edulit_ind indicator                 country_code country  year student_ratio
   <chr>      <chr>                     <chr>        <chr>   <dbl>         <dbl>
 1 PTRHC_2    Lower Secondary Education BMU          Bermuda  2013          4.95
 2 PTRHC_2    Lower Secondary Education BMU          Bermuda  2014          4.58
 3 PTRHC_2    Lower Secondary Education BMU          Bermuda  2015          6.02
 4 PTRHC_2    Lower Secondary Education LIE          Liecht…  2016          5.63
 5 PTRHC_1    Primary Education         SMR          San Ma…  2012          6.27
 6 PTRHC_1    Primary Education         BMU          Bermuda  2013          7.19
 7 PTRHC_1    Primary Education         BMU          Bermuda  2014          6.72
 8 PTRHC_1    Primary Education         LIE          Liecht…  2015          7.85
 9 PTRHC_3    Upper Secondary Education BMU          Bermuda  2013          5.71
10 PTRHC_02   Pre-Primary Education     ISL          Iceland  2012          5.03
# ℹ 39 more rows

Ejercicio 3

Realiza un muestreo aleatorio estratificado (por nivel educativo) del 30% de los datos. Tras realizarlo realiza las comprobaciones necesarios para chequear que, efectivamente, se ha realizado la estratificación de manera adecuada.

rm(list = ls())

student_data <- read_csv(file = "./datos/student_ratio.csv")

random_sampling <- student_data |> drop_na(indicator) |> slice_sample(prop = 0.3, by=indicator)

random_sampling

# A tibble: 1,555 × 6
   edulit_ind indicator                 country_code country  year student_ratio
   <chr>      <chr>                     <chr>        <chr>   <dbl>         <dbl>
 1 PTRHC_2    Lower Secondary Education IND          India    2014         30.5 
 2 PTRHC_2    Lower Secondary Education MEX          Mexico   2017         19.7 
 3 PTRHC_2    Lower Secondary Education 40642        Northe…  2015         11.4 
 4 PTRHC_2    Lower Secondary Education 40030        Middle…  2013         17.9 
 5 PTRHC_2    Lower Secondary Education 40603        Africa…  2012         17.4 
 6 PTRHC_2    Lower Secondary Education GIB          Gibral…  2017         15.5 
 7 PTRHC_2    Lower Secondary Education PRT          Portug…  2016          9.49
 8 PTRHC_2    Lower Secondary Education 40617        Wester…  2016         16.1 
 9 PTRHC_2    Lower Secondary Education 40619        Asia (…  2012         15.3 
10 PTRHC_2    Lower Secondary Education BTN          Bhutan   2015         13.3 
# ℹ 1,545 more rows
…
Ayuda

Si te fijas los países tienen un código de 3 letras, mientras que el resto es un “número“. Ya que os he dado esta pista, haced este filtro de dos maneras distintas.

rm(list = ls())

student_data <- read_csv(file="./datos/student_ratio.csv")

Se realiza un primer filtrado contando que el número de caracteres del campo country_code sea igual a 3 y contando solo registros del 2014 en adelante.

student_data_filtered <- student_data |> drop_na(country) |> filter(nchar(country_code) == 3 & year >= 2014)

student_data_filtered

# A tibble: 2,755 × 6
   edulit_ind indicator                 country_code country  year student_ratio
   <chr>      <chr>                     <chr>        <chr>   <dbl>         <dbl>
 1 PTRHC_2    Lower Secondary Education MRT          Maurit…  2014         51.9 
 2 PTRHC_2    Lower Secondary Education MRT          Maurit…  2015         53.2 
 3 PTRHC_2    Lower Secondary Education MRT          Maurit…  2016         38.2 
 4 PTRHC_1    Primary Education         COD          Democr…  2014         35.3 
 5 PTRHC_1    Primary Education         COD          Democr…  2015         33.2 
 6 PTRHC_02   Pre-Primary Education     GNQ          Equato…  2015         16.7 
 7 PTRHC_02   Pre-Primary Education     ARM          Armenia  2014          8.99
 8 PTRHC_02   Pre-Primary Education     ARM          Armenia  2015          8.73
 9 PTRHC_02   Pre-Primary Education     ARM          Armenia  2016          8.55
10 PTRHC_02   Pre-Primary Education     ARM          Armenia  2017          8.39
# ℹ 2,745 more rows

El segundo filtrado utiliza la función grepl mediante la cual se especifica una regex que sigue el tipo de caracter y la longitud de la cadena de texto por la que queremos filtrar en la columna country_code además de contar solo registros del 2014 en adelante.

student_data_filtered <- student_data |> drop_na(country) |> filter(grepl("^[A-Za-z]{3}$", country_code) & year >= 2014)

student_data_filtered

# A tibble: 2,755 × 6
   edulit_ind indicator                 country_code country  year student_ratio
   <chr>      <chr>                     <chr>        <chr>   <dbl>         <dbl>
 1 PTRHC_2    Lower Secondary Education MRT          Maurit…  2014         51.9 
 2 PTRHC_2    Lower Secondary Education MRT          Maurit…  2015         53.2 
 3 PTRHC_2    Lower Secondary Education MRT          Maurit…  2016         38.2 
 4 PTRHC_1    Primary Education         COD          Democr…  2014         35.3 
 5 PTRHC_1    Primary Education         COD          Democr…  2015         33.2 
 6 PTRHC_02   Pre-Primary Education     GNQ          Equato…  2015         16.7 
 7 PTRHC_02   Pre-Primary Education     ARM          Armenia  2014          8.99
 8 PTRHC_02   Pre-Primary Education     ARM          Armenia  2015          8.73
 9 PTRHC_02   Pre-Primary Education     ARM          Armenia  2016          8.55
10 PTRHC_02   Pre-Primary Education     ARM          Armenia  2017          8.39
# ℹ 2,745 more rows

Ejercicio 6

Considerando el dataset del ejercicio anterior, realiza un muestreo aleatorio del 10% de los datos, estratificado por año, de manera que la probabilidad de cada país de ser elegido en la muestra sea proporcional a su ratio medio (entre todos los niveles educativos, para cada uno de esos años).

student_data_sample <- student_data_filtered |> drop_na(student_ratio) |> mutate(mean_ratio = mean(student_ratio), .by = c(year, country_code)) |> slice_sample(prop = 0.1, by=year, weight_by = mean_ratio)

student_data_sample

# A tibble: 251 × 7
   edulit_ind indicator      country_code country  year student_ratio mean_ratio
   <chr>      <chr>          <chr>        <chr>   <dbl>         <dbl>      <dbl>
 1 PTRHC_1    Primary Educa… ECU          Ecuador  2014         24.7        23.2
 2 PTRHC_02   Pre-Primary E… MUS          Maurit…  2014         13.4        15.1
 3 PTRHC_1    Primary Educa… LSO          Lesotho  2014         32.8        50.7
 4 PTRHC_1    Primary Educa… MLI          Mali     2014         42.5        24.3
 5 PTRHC_4    Post-Secondar… CMR          Camero…  2014          9.52       29.5
 6 PTRHC_3    Upper Seconda… TLS          Timor-…  2014         28.6        28.6
 7 PTRHC_2    Lower Seconda… ERI          Eritrea  2014         40.7        36.1
 8 PTRHC_1    Primary Educa… PHL          Philip…  2014         31.4        29.2
 9 PTRHC_2T3  Secondary Edu… SWZ          Eswati…  2014         15.9        16.1
10 PTRHC_5T8  Tertiary Educ… ALB          Albania  2014         23.6        17.5
# ℹ 241 more rows

Ejercicio 7

Considerando el dataset del ejercicio anterior, por cada uno de los países y nivel educativo, quédate solo con el último registro (el más reciente).

student_data_recent <- student_data_sample |> slice_max(year, n=1, by = c(country_code, indicator))

student_data_recent

# A tibble: 214 × 7
   edulit_ind indicator      country_code country  year student_ratio mean_ratio
   <chr>      <chr>          <chr>        <chr>   <dbl>         <dbl>      <dbl>
 1 PTRHC_1    Primary Educa… ECU          Ecuador  2016         25.1        22.5
 2 PTRHC_02   Pre-Primary E… MUS          Maurit…  2016         12.8        14.6
 3 PTRHC_1    Primary Educa… LSO          Lesotho  2014         32.8        50.7
 4 PTRHC_1    Primary Educa… MLI          Mali     2017         38.2        21.9
 5 PTRHC_4    Post-Secondar… CMR          Camero…  2014          9.52       29.5
 6 PTRHC_3    Upper Seconda… TLS          Timor-…  2015         24.6        27.8
 7 PTRHC_2    Lower Seconda… ERI          Eritrea  2014         40.7        36.1
 8 PTRHC_1    Primary Educa… PHL          Philip…  2014         31.4        29.2
 9 PTRHC_2T3  Secondary Edu… SWZ          Eswati…  2014         15.9        16.1
10 PTRHC_5T8  Tertiary Educ… ALB          Albania  2014         23.6        17.5
# ℹ 204 more rows
…
